Name,WeightClassKg,Division,AgeRange,Sex,Best3SquatKg,Squat4Kg,Best3BenchKg,Bench4Kg,Best3DeadliftKg,Deadlift4Kg,TotalKg,Event,Equipment,Place
Helen Balmania,44,Open,,F,67.5,,35,,95,,197.5,SBD,Raw,1
M. Cahill,44,Submasters,35-39,F,42.5,,30,,82.5,,155,SBD,Raw,1
Betty Lee,52,Open,,F,82.5,,62.5,,155,,300,SBD,Raw,1
M. Lemes,52,Open,,F,72.5,,52.5,,122.5,,247.5,SBD,Raw,2
Jana Gedde,52,Masters 40-44,40-44,F,92.5,,75,,150,,317.5,SBD,Raw,1
C. Koski,67.5,Open,,F,42.5,,32.5,,80,,155,SBD,Raw,1
M. Jordan,67.5,Open,,F,,,,,,,,SBD,Raw,DQ
C. Koski,67.5,Masters 40-44,40-44,F,42.5,,32.5,,80,,155,SBD,Raw,1
D. Kaaihue,75,Open,,F,115,,65,,120,,300,SBD,Raw,1
J. Negron,75,Open,,F,55,,40,,92.5,100,187.5,SBD,Raw,2
Vicky Hembree,90,Open,,F,155,,120,,185,,460,SBD,Raw,1
Vicky Hembree,90,Submasters,35-39,F,155,,120,,185,,460,SBD,Raw,1
N. Edelson,90+,Submasters,35-39,F,,,,,,,,SBD,Raw,DQ
G. Young,56,Open,,M,152.5,,92.5,,172.5,,417.5,SBD,Raw,1
G. Young,56,Submasters,35-39,M,152.5,,92.5,,172.5,,417.5,SBD,Raw,1
C. Taylor,67.5,Submasters,35-39,M,110,,100,,110,,320,SBD,Raw,1
Robert Cortes,67.5,Masters 65-69,65-69,M,160,,115,,207.5,215,482.5,SBD,Raw,1
M. Perez,75,Open,,M,180,,137.5,,215,,532.5,SBD,Raw,1
Mitch Owen,75,Masters 45-49,45-49,M,175,,140,145,205,,520,SBD,Raw,1
S. Brown,75,Masters 50-54,50-54,M,167.5,,100,105,165,,432.5,SBD,Raw,1
R. Scott,75,Masters 50-54,50-54,M,147.5,,85,,190,,422.5,SBD,Raw,2
Phil Cannizzaro,82.5,Open,,M,200,,175,,227.5,,602.5,SBD,Raw,1
C. Couvillion,82.5,Open,,M,185,,125,,237.5,,547.5,SBD,Raw,2
K. Ward,82.5,Open,,M,115,,105,,170,,390,SBD,Raw,3
Andrew Hoyos,82.5,Masters 40-44,40-44,M,135,,130,,137.5,,402.5,SBD,Raw,1
S. Salus,90,Open,,M,247.5,,177.5,,277.5,,702.5,SBD,Raw,1
J. Deigan,90,Open,,M,245,,167.5,,277.5,280,690,SBD,Raw,2
J. Frizzell,90,Open,,M,115,,77.5,,155,,347.5,SBD,Raw,3
Keith Kanemoto,90,Submasters,35-39,M,195,,170,,227.5,,592.5,SBD,Raw,1
Greg Berteaux,90,Submasters,35-39,M,190,,142.5,,215,,547.5,SBD,Raw,2
B. Cahill,90,Masters 40-44,40-44,M,167.5,,127.5,,235,,530,SBD,Raw,1
Ed Lewis,90,Masters 45-49,45-49,M,200,,117.5,,190,,507.5,SBD,Raw,1
Rich Tsutsui,90,Masters 50-54,50-54,M,190,,160,,200,,550,SBD,Raw,1
Bob Strange,90,Masters 60-64,60-64,M,195,,145,,240,,580,SBD,Raw,1
George Manly,90,Masters 65-69,65-69,M,167.5,,102.5,,200,,470,SBD,Raw,1
L. Oeri,90,US Open,,M,180,,155,,230,,565,SBD,Raw,1
P. Liles,100,Open,,M,280,,165,,282.5,,727.5,SBD,Raw,1
Jason Burnell,100,Open,,M,270,,170,,282.5,,722.5,SBD,Raw,2
D. Mahan,100,Open,,M,265,,170,,275,,710,SBD,Raw,3
Tom Pete,100,Open,,M,260,,177.5,,267.5,,705,SBD,Raw,4
J. Puma,100,Open,,M,240,,152.5,,287.5,,680,SBD,Raw,5
Steve Landry,100,Open,,M,227.5,,175,,270,,672.5,SBD,Raw,6
C. Ballesteros,100,Open,,M,195,,150,,200,,545,SBD,Raw,7
R. Dixon,100,Submasters,35-39,M,205,,142.5,,232.5,,580,SBD,Raw,1
K. Jordan,100,Masters 40-44,40-44,M,227.5,,145,,222.5,,595,SBD,Raw,1
Ed Berteaux,100,Masters 40-44,40-44,M,190,,150,,237.5,240,577.5,SBD,Raw,2
Martin Drake,100,Masters 45-49,45-49,M,157.5,,135,,202.5,,495,SBD,Raw,1
Bob Evans #1,100,Masters 50-54,50-54,M,180,,130,,190,,500,SBD,Raw,1
Daniel Smith III,100,Masters 55-59,55-59,M,102.5,,182.5,185,182.5,,467.5,SBD,Raw,1
A. Green,110,Open,,M,212.5,,175,,277.5,,665,SBD,Raw,1
Russ Kitani,110,Open,,M,205,,205,,230,,640,SBD,Raw,2
John DuMont,110,Open,,M,227.5,,150,,262.5,,640,SBD,Raw,3
A. Green,110,Submasters,35-39,M,212.5,,175,,277.5,,665,SBD,Raw,1
Victor Elliott,110,Masters 45-49,45-49,M,240,,155,,245,,640,SBD,Raw,1
John DuMont,110,Masters 50-54,50-54,M,227.5,,150,,262.5,,640,SBD,Raw,1
S. Sadler,125,Open,,M,285,,180,,277.5,,742.5,SBD,Raw,1
L. Beane,125,Open,,M,200,,185,,267.5,,652.5,SBD,Raw,2
Robert Speno,125,Open,,M,235,,185,,230,,650,SBD,Raw,3
M. Venuta,125,Open,,M,195,,175,,250,,620,SBD,Raw,4
L. Beane,125,Submasters,35-39,M,200,,185,,267.5,,652.5,SBD,Raw,1
Doug Parsons,125,Submasters,35-39,M,65,,142.5,,202.5,,410,SBD,Raw,2
Brett Williams,125,Masters 40-44,40-44,M,110,,120,,175,,405,SBD,Raw,1
Dave Dreyer,125,Masters 45-49,45-49,M,192.5,,142.5,,230,,565,SBD,Raw,1
Lewis Thomason,125,Masters 65-69,65-69,M,145,,147.5,,182.5,,475,SBD,Raw,1
Greg Payne,145,Open,,M,300,,212.5,,330,337.5,842.5,SBD,Raw,1
K. Bourassa,145,Open,,M,250,,205,,272.5,,727.5,SBD,Raw,2
K. Ward,145,Masters 40-44,40-44,M,137.5,150,162.5,,190,,490,SBD,Raw,1
K. Bourassa,145+,Open,,M,240,,192.5,,227.5,,660,SBD,Raw,1
K. Bourassa,145+,Submasters,35-39,M,240,,192.5,,227.5,,660,SBD,Raw,1
