Name,Sex,Age,Division,Equipment,BodyweightKg,WeightClassKg,Squat1Kg,Squat2Kg,Squat3Kg,Best3SquatKg,Bench1Kg,Bench2Kg,Bench3Kg,Best3BenchKg,Deadlift1Kg,Deadlift2Kg,Deadlift3Kg,Best3DeadliftKg,TotalKg,Event,Place,Country
Diane Last,F,29,Open,Single-ply,59.8,60,115,122.5,-127.5,122.5,62.5,67.5,72.5,72.5,120,127.5,132.5,132.5,327.5,SBD,1,Netherlands
Lucy-Aileen Kruger,F,41,Masters 40-44,Single-ply,64.2,67.5,82.5,92.5,-100,92.5,62.5,67.5,-72.5,67.5,132.5,145,152.5,152.5,312.5,SBD,1,Germany
Yvonne Van der Stoop,F,44,Masters 40-44,Single-ply,,67.5,,,,,,,,,,,,,,SBD,DQ,Netherlands
Gurwinder Johal,M,17,Teen 15-19,Single-ply,65,67.5,130,150,160,160,100,105,-110,105,130,145,-155,145,410,SBD,1,UK
Engin Sinar,M,28,Open,Single-ply,67.4,67.5,160,-175,-180,160,120,-130,130,130,180,-195,-195,180,470,SBD,1,Germany
Desmond Drury,M,33,Open,Single-ply,69.6,75,165,180,192.5,192.5,105,115,122.5,122.5,175,190,205,205,520,SBD,2,UK
David Gallagher,M,33,Open,Single-ply,71.5,75,140,160,167.5,167.5,90,-95,,90,190,195,200,200,457.5,SBD,3,UK
Christian Schartz,M,29,Open,Single-ply,74.8,75,227.5,235.5,240,240,152.5,157.5,163,163,225,235,-240,235,638,SBD,1,Luxembourg
Maurice Green,M,44,Masters 40-44,Single-ply,72.8,75,200,225,232.5,232.5,135,-142.5,142.5,142.5,210,225,-237.5,225,600,SBD,1,UK
Mick Toland,M,44,Masters 40-44,Single-ply,72.5,75,195,205,212.5,212.5,125,130,135,135,225,237.5,-252.5,237.5,585,SBD,2,UK
Calin Eschenasy,M,48,Masters 45-49,Single-ply,73.8,75,200,-220,220,220,135,145,-150,145,200,-220,-220,200,565,SBD,1,Germany
Coert Hoppenbrouwers,M,46,Masters 45-49,Single-ply,76.8,82.5,220,232.5,240,240,145,155,-160,155,252.5,262.5,-267.5,262.5,657.5,SBD,1,Netherlands
Heike Schattmann,F,38,Open,Single-ply,79.8,82.5,-82.5,-92.5,92.5,92.5,90,95,-100,95,132.5,145,152.5,152.5,340,SBD,1,Germany
Paul Murphy,M,36,Open,Single-ply,80.2,82.5,240,260,272.5,272.5,155,165,-170.5,165,250,265,272.5,272.5,710,SBD,1,UK
Jörg Rödiger,M,37,Open,Single-ply,82,82.5,175,-185,190,190,120,130,-135,130,175,190,-200,190,510,SBD,2,Germany
Dean Drury,M,40,Masters 40-44,Single-ply,83.4,90,260,280,300,300,150,160,-170,160,250,265,-282.5,265,725,SBD,1,UK
Aranjit Bassra,M,17,Teen 15-19,Single-ply,83,90,-130,145,-170,145,80,95,-100,95,130,145,160,160,400,SBD,1,UK
Stephen Pitts,M,22,Juniors 20-23,Single-ply,88,90,180,200,210,210,130,140,-150,140,190,215,-225,215,565,SBD,1,UK
Alexander Mittae,M,21,Juniors 20-23,Single-ply,,90,,,,,,,,,,,,,,SBD,DQ,Germany
Philip Watkins,M,35,Open,Single-ply,88.4,90,-270,-291,291,291,170,-177.5,177.5,177.5,300,-307.5,-307.5,300,768.5,SBD,1,UK
Jarnail Singh Birring,M,54,Masters 50-54,Single-ply,91.5,100,200,230,-250,230,170,182.5,186,186,200,220,,220,636,SBD,1,UK
Damian Lapacz,M,19,Teen 15-19,Single-ply,106,110,185,195,210,210,130,145,-155,145,225,242.5,247.5,247.5,602.5,SBD,1,Germany
Keith Ellis,M,21,Juniors 20-23,Single-ply,103,110,265,-285,292.5,292.5,155,162.5,165,165,240,260,275.5,275.5,733,SBD,1,UK
Erwin Krokkee,M,37,Open,Single-ply,93.2,100,310,330,340,340,210,230,235,235,270,300,-311,300,875,SBD,1,Netherlands
Mike Zollig,M,28,Open,Single-ply,94.8,100,140,150,170,170,110,120,-130,120,210,225,240,240,530,SBD,2,Germany
Geraint Nicholas,M,40,Masters 40-44,Single-ply,97,100,235,-250,-250,235,142.5,150,160,160,260,275,-285,275,670,SBD,1,UK
Stephen Barber,M,49,Masters 45-49,Single-ply,97,100,260,-275,275,275,170,-180,180,180,250,260,-265,260,715,SBD,1,UK
Peter Berghmans,M,50,Masters 50-54,Single-ply,95.2,100,160,175,185,185,115,120,-125,120,180,200,210,210,515,SBD,2,Netherlands
Hendrick Bakker,M,22,Juniors 20-23,Single-ply,101.5,110,200,215,-225,215,115,-125,125,125,200,210,-215,210,550,SBD,2,Netherlands
Marcus Griffiths,M,30,Open,Single-ply,105,110,300,311,320,320,200,-210,-210,200,300,311,320,320,840,SBD,1,UK
Mark Jordan,M,38,Open,Single-ply,103.5,110,300,-312.5,-325,300,190,200,205,205,270,285,-295,285,790,SBD,2,UK
Stephen Block,M,40,Masters 40-44,Single-ply,,110,,,,,,,,,,,,,,SBD,DQ,UK
Ed Fennema,M,41,Masters 40-44,Single-ply,108.5,110,267.5,277.5,282.5,282.5,160,170,175,175,265,270,275,275,732.5,SBD,1,Netherlands
Albert Hoekstra,M,40,Masters 40-44,Single-ply,104,110,270,280,-285,280,-190,-190,190,190,245,252.5,260,260,730,SBD,2,Netherlands
Take Geijl,M,37,Open,Single-ply,116.5,125,280,310,330,330,-200,200,,200,290,-300,,290,820,SBD,1,Netherlands
Jaap Fahner,M,43,Masters 40-44,Single-ply,118,125,-305,305,-326,305,215,-230,,215,320,342.5,,342.5,862.5,SBD,1,Netherlands
Anthony Scott,M,42,Masters 40-44,Single-ply,119,125,280,-300,,280,180,220,-240,220,280,-310,310,310,810,SBD,2,UK
David Carter #1,M,56,Masters 55-59,Single-ply,121.5,125,280,305,320,320,152.5,160.5,165,165,300,322.5,342.5,342.5,827.5,SBD,1,UK
Gareth Pavey,M,21,Juniors 20-23,Single-ply,133,140,215,-235,235,235,135,-145,145,145,230,240,250,250,630,SBD,1,UK
Duncan Tanner,M,33,Open,Single-ply,134,140,-250,250,275,275,185,-202.5,202.5,202.5,205,235,-260,235,712.5,SBD,1,UK
Richard Fricker,M,43,Masters 40-44,Single-ply,159,140+,280,315,330.5,330.5,180,200,210,210,250,285,,285,825.5,SBD,1,UK
